<?xml version="1.0" encoding="UTF-8" standalone="no"?>
<!-- Created with Inkscape (http://www.inkscape.org/) -->

<svg
   xmlns:dc="http://purl.org/dc/elements/1.1/"
   xmlns:cc="http://creativecommons.org/ns#"
   xmlns:rdf="http://www.w3.org/1999/02/22-rdf-syntax-ns#"
   xmlns:svg="http://www.w3.org/2000/svg"
   xmlns="http://www.w3.org/2000/svg"
   xmlns:sodipodi="http://sodipodi.sourceforge.net/DTD/sodipodi-0.dtd"
   xmlns:inkscape="http://www.inkscape.org/namespaces/inkscape"
   width="10cm"
   height="4.8000002cm"
   viewBox="0 0 354.33071 170.07873"
   id="svg2"
   version="1.1"
   inkscape:version="0.91 r13725"
   sodipodi:docname="firefox-module1.svg"
   inkscape:export-filename="/media/h4ck3r/GrosDisque/Fichiersdetravail/Projets_Libres/LIVRESENCOURS/manueldumo/images/firefox-module1NEW.png"
   inkscape:export-xdpi="300"
   inkscape:export-ydpi="300">
  <defs
     id="defs4" />
  <sodipodi:namedview
     id="base"
     pagecolor="#ffffff"
     bordercolor="#666666"
     borderopacity="1.0"
     inkscape:pageopacity="0.0"
     inkscape:pageshadow="2"
     inkscape:zoom="1.979899"
     inkscape:cx="34.568638"
     inkscape:cy="164.73534"
     inkscape:document-units="px"
     inkscape:current-layer="layer1"
     showgrid="false"
     units="cm"
     inkscape:window-width="1920"
     inkscape:window-height="1026"
     inkscape:window-x="0"
     inkscape:window-y="0"
     inkscape:window-maximized="1"
     fit-margin-top="0.1"
     fit-margin-left="0.1"
     fit-margin-bottom="0.1"
     fit-margin-right="0.1"
     borderlayer="true" />
  <metadata
     id="metadata7">
    <rdf:RDF>
      <cc:Work
         rdf:about="">
        <dc:format>image/svg+xml</dc:format>
        <dc:type
           rdf:resource="http://purl.org/dc/dcmitype/StillImage" />
        <dc:title></dc:title>
      </cc:Work>
    </rdf:RDF>
  </metadata>
  <g
     inkscape:label="Calque 1"
     inkscape:groupmode="layer"
     id="layer1"
     transform="translate(-2.3897126,-882.55973)">
    <rect
       style="opacity:1;fill:#ffffff;fill-opacity:1;stroke:none;stroke-width:1.5;stroke-linejoin:round;stroke-miterlimit:4;stroke-dasharray:none;stroke-dashoffset:0;stroke-opacity:1"
       id="rect4181"
       width="371.23105"
       height="194.95944"
       x="-7.2067361"
       y="870.30591" />
    <rect
       style="opacity:1;fill:#ffffff;fill-opacity:1;stroke:#000000;stroke-width:1.79815888;stroke-linejoin:round;stroke-miterlimit:4;stroke-dasharray:none;stroke-dashoffset:0;stroke-opacity:1"
       id="rect4136"
       width="346.32889"
       height="160.6077"
       x="6.7099924"
       y="886.55072"
       ry="8.4530382" />
    <g
       id="g4189"
       transform="matrix(0.61950081,-0.63030542,0.63393757,0.61595138,117.47486,725.87076)">
      <path
         id="rect4148-3"
         d="m 37.079917,306.64048 c -0.95342,0 -1.72193,0.76699 -1.72193,1.72041 l 0,4.42652 -4.37632,0 c -0.95343,0 -1.72042,0.76699 -1.72042,1.72041 0,0.95342 0.76699,1.72041 1.72042,1.72041 l 4.37632,0 0,4.62275 c 0,0.95341 0.76851,1.72041 1.72193,1.72041 0.95341,0 1.72041,-0.767 1.72041,-1.72041 l 0,-4.62275 4.67142,0 c 0.95342,0 1.72041,-0.76699 1.72041,-1.72041 0,-0.95342 -0.76699,-1.72041 -1.72041,-1.72041 l -4.67142,0 0,-4.42652 c 0,-0.95342 -0.767,-1.72041 -1.72041,-1.72041 z"
         style="opacity:1;fill:#000000;fill-opacity:1;stroke:none;stroke-width:3.54330707;stroke-linejoin:round;stroke-miterlimit:4;stroke-dasharray:none;stroke-dashoffset:0;stroke-opacity:1"
         inkscape:connector-curvature="0" />
      <rect
         style="opacity:1;fill:#000000;fill-opacity:1;stroke:none;stroke-width:3.54330707;stroke-linejoin:round;stroke-miterlimit:4;stroke-dasharray:none;stroke-dashoffset:0;stroke-opacity:1"
         id="rect4192"
         width="13.768497"
         height="3.0596659"
         x="227.25305"
         y="196.33365"
         transform="matrix(0.69891616,0.71520361,-0.71520361,0.69891616,0,0)"
         ry="1.529833" />
      <flowRoot
         xml:space="preserve"
         id="flowRoot4194"
         style="font-style:normal;font-weight:normal;font-size:40px;line-height:125%;font-family:sans-serif;letter-spacing:0px;word-spacing:0px;fill:#000000;fill-opacity:1;stroke:none;stroke-width:1px;stroke-linecap:butt;stroke-linejoin:miter;stroke-opacity:1"
         transform="matrix(0.69891616,0.71520361,-0.71520361,0.69891616,118.99393,338.67144)"><flowRegion
           id="flowRegion4196"><rect
             id="rect4198"
             width="145.46196"
             height="150.00766"
             x="43.941635"
             y="98.140587" /></flowRegion><flowPara
           id="flowPara4200" /></flowRoot>      <text
         xml:space="preserve"
         style="font-style:normal;font-weight:normal;font-size:40px;line-height:125%;font-family:sans-serif;letter-spacing:0px;word-spacing:0px;fill:#000000;fill-opacity:1;stroke:none;stroke-width:1px;stroke-linecap:butt;stroke-linejoin:miter;stroke-opacity:1"
         x="252.14975"
         y="141.14725"
         id="text4218"
         sodipodi:linespacing="125%"
         transform="matrix(0.69891616,0.71520361,-0.71520361,0.69891616,0,0)"><tspan
           sodipodi:role="line"
           id="tspan4220"
           x="252.14975"
           y="141.14725" /></text>
    </g>
    <text
       xml:space="preserve"
       style="font-style:normal;font-weight:normal;font-size:11.27164936px;line-height:125%;font-family:sans-serif;letter-spacing:0px;word-spacing:0px;fill:#000000;fill-opacity:1;stroke:none;stroke-width:1px;stroke-linecap:butt;stroke-linejoin:miter;stroke-opacity:1"
       x="168.86855"
       y="898.21252"
       id="text4620"
       sodipodi:linespacing="125%"><tspan
         sodipodi:role="line"
         id="tspan4622"
         x="168.86855"
         y="898.21252"
         style="font-style:italic;font-variant:normal;font-weight:normal;font-stretch:normal;font-family:sans-serif;-inkscape-font-specification:'sans-serif Italic'">Firefox</tspan></text>
    <circle
       style="opacity:1;fill:#b3b3b3;fill-opacity:1;stroke:none;stroke-width:1.5;stroke-linejoin:round;stroke-miterlimit:4;stroke-dasharray:none;stroke-dashoffset:0;stroke-opacity:1"
       id="path4626"
       cx="17.679756"
       cy="912.28625"
       r="8.0744638" />
    <text
       xml:space="preserve"
       style="font-style:normal;font-weight:normal;font-size:18.77405167px;line-height:125%;font-family:sans-serif;letter-spacing:0px;word-spacing:0px;fill:#000000;fill-opacity:1;stroke:none;stroke-width:1px;stroke-linecap:butt;stroke-linejoin:miter;stroke-opacity:1"
       x="12.782692"
       y="793.26776"
       id="text4628"
       sodipodi:linespacing="125%"
       transform="scale(0.86334276,1.1582885)"><tspan
         sodipodi:role="line"
         id="tspan4630"
         x="12.782692"
         y="793.26776">←</tspan></text>
    <rect
       style="opacity:1;fill:#b3b3b3;fill-opacity:1;stroke:#000000;stroke-width:0.94038957;stroke-linejoin:round;stroke-miterlimit:4;stroke-dasharray:none;stroke-dashoffset:0;stroke-opacity:1"
       id="rect4652"
       width="199.72081"
       height="14.77755"
       x="46.2248"
       y="904.85199"
       ry="0.60639453" />
    <text
       xml:space="preserve"
       style="font-style:normal;font-weight:normal;font-size:11.41806126px;line-height:125%;font-family:sans-serif;letter-spacing:0px;word-spacing:0px;fill:#000000;fill-opacity:1;stroke:none;stroke-width:1px;stroke-linecap:butt;stroke-linejoin:miter;stroke-opacity:1"
       x="30.92318"
       y="1490.1842"
       id="text4632"
       sodipodi:linespacing="125%"
       transform="scale(1.6283157,0.61413153)"><tspan
         sodipodi:role="line"
         id="tspan4634"
         x="30.92318"
         y="1490.1842">i</tspan></text>
    <circle
       style="opacity:1;fill:none;fill-opacity:1;stroke:#000000;stroke-width:0.60322863;stroke-linejoin:round;stroke-miterlimit:4;stroke-dasharray:none;stroke-dashoffset:0;stroke-opacity:1"
       id="path4636"
       cx="52.928638"
       cy="912.5658"
       r="3.7881327" />
    <rect
       style="opacity:1;fill:none;fill-opacity:1;stroke:#000000;stroke-width:0.83208144;stroke-linejoin:round;stroke-miterlimit:4;stroke-dasharray:none;stroke-dashoffset:0;stroke-opacity:1"
       id="rect4638"
       width="4.2545509"
       height="4.7746563"
       x="60.37936"
       y="909.39874"
       ry="2.3873281" />
    <rect
       style="opacity:1;fill:#000000;fill-opacity:1;stroke:none;stroke-width:1.5;stroke-linejoin:round;stroke-miterlimit:4;stroke-dasharray:none;stroke-dashoffset:0;stroke-opacity:1"
       id="rect4640"
       width="6.2412667"
       height="4.9410024"
       x="59.360001"
       y="911.65594"
       ry="0" />
    <text
       xml:space="preserve"
       style="font-style:normal;font-weight:normal;font-size:10.73284912px;line-height:125%;font-family:sans-serif;letter-spacing:0px;word-spacing:0px;fill:#000000;fill-opacity:1;stroke:none;stroke-width:1px;stroke-linecap:butt;stroke-linejoin:miter;stroke-opacity:1"
       x="81.023163"
       y="915.45996"
       id="text4642"
       sodipodi:linespacing="125%"><tspan
         sodipodi:role="line"
         id="tspan4644"
         x="81.023163"
         y="915.45996">https://addons.mozilla.org</tspan></text>
    <rect
       style="opacity:1;fill:#b3b3b3;fill-opacity:1;stroke:#000000;stroke-width:0.94038957;stroke-linejoin:round;stroke-miterlimit:4;stroke-dasharray:none;stroke-dashoffset:0;stroke-opacity:1"
       id="rect4652-3"
       width="68.896164"
       height="14.60548"
       x="248.63669"
       y="905.07043"
       ry="0.59933347" />
    <circle
       style="opacity:1;fill:none;fill-opacity:1;stroke:#000000;stroke-width:1.20657098;stroke-linejoin:round;stroke-miterlimit:4;stroke-dasharray:none;stroke-dashoffset:0;stroke-opacity:1"
       id="path4648"
       cx="254.73772"
       cy="910.8205"
       r="3.0941494" />
    <rect
       style="opacity:1;fill:#000000;fill-opacity:1;stroke:none;stroke-width:1.43700004;stroke-linejoin:round;stroke-miterlimit:4;stroke-dasharray:none;stroke-dashoffset:0;stroke-opacity:1"
       id="rect4650"
       width="6.6944103"
       height="1.6242946"
       x="737.948"
       y="594.37091"
       ry="0.81214732"
       transform="matrix(0.81513972,0.5792644,-0.5792644,0.81513972,0,0)" />
    <path
       sodipodi:type="star"
       style="opacity:1;fill:#000000;fill-opacity:1;stroke:none;stroke-width:1.5;stroke-linejoin:round;stroke-miterlimit:4;stroke-dasharray:none;stroke-dashoffset:0;stroke-opacity:1"
       id="path4646"
       sodipodi:sides="5"
       sodipodi:cx="237.20567"
       sodipodi:cy="912.4198"
       sodipodi:r1="5.3705859"
       sodipodi:r2="2.6852932"
       sodipodi:arg1="1.3633001"
       sodipodi:arg2="1.9916186"
       inkscape:flatsided="false"
       inkscape:rounded="0"
       inkscape:randomized="0"
       d="m 238.31207,917.67519 -2.20337,-2.80438 -3.5593,0.22524 1.98624,-2.96213 -1.3141,-3.31549 3.43093,0.97368 2.74715,-2.27433 0.13419,3.56389 3.01193,1.90989 -3.348,1.22893 z"
       inkscape:transform-center-x="-0.34187047"
       inkscape:transform-center-y="0.17664562" />
    <rect
       style="opacity:1;fill:#b3b3b3;fill-opacity:1;stroke:#000000;stroke-width:0.94038957;stroke-linejoin:round;stroke-miterlimit:4;stroke-dasharray:none;stroke-dashoffset:0;stroke-opacity:1"
       id="rect4669"
       width="1.4553648"
       height="14.553648"
       x="227.13785"
       y="905.07587"
       ry="0.72768241" />
    <circle
       style="opacity:1;fill:#b3b3b3;fill-opacity:1;stroke:none;stroke-width:1.5;stroke-linejoin:round;stroke-miterlimit:4;stroke-dasharray:none;stroke-dashoffset:0;stroke-opacity:1"
       id="path4626-6"
       cx="-35.728558"
       cy="912.44464"
       r="8.0744638"
       transform="scale(-1,1)" />
    <text
       xml:space="preserve"
       style="font-style:normal;font-weight:normal;font-size:18.77405167px;line-height:125%;font-family:sans-serif;letter-spacing:0px;word-spacing:0px;fill:#000000;fill-opacity:1;stroke:none;stroke-width:1px;stroke-linecap:butt;stroke-linejoin:miter;stroke-opacity:1"
       x="-49.079544"
       y="793.40442"
       id="text4628-7"
       sodipodi:linespacing="125%"
       transform="scale(-0.86334276,1.1582885)"><tspan
         sodipodi:role="line"
         id="tspan4630-5"
         x="-49.079544"
         y="793.40442">←</tspan></text>
    <g
       id="g4873-5"
       transform="matrix(0.12796657,0,0,0.12796657,101.33381,783.2943)"
       style="fill:#000000">
      <path
         style="opacity:1;fill:#000000;fill-opacity:1;stroke:none;stroke-width:1.5;stroke-linejoin:round;stroke-miterlimit:4;stroke-dasharray:none;stroke-dashoffset:0;stroke-opacity:1"
         d="m -254.93008,1043.5505 c -3.9442,-1.0976 -5.1687,-4.6277 -4.8431,-13.9621 0.2216,-6.3546 0.7126,-8.7205 2.0965,-10.1015 1.7349,-1.7313 2.0177,-1.6909 7.0711,1.012 l 5.2639,2.8155 2.2656,-2.6109 c 3.0624,-3.529 3.7439,-6.8475 2.1089,-10.2692 -1.6829,-3.522 -5.2003,-4.1882 -9.6006,-1.8184 -4.003,2.1557 -7.9407,1.3573 -8.7815,-1.7806 -1.2538,-4.679 -0.6644,-11.6259 1.1797,-13.90319 1.4703,-1.81585 3.3332,-2.39494 9.7135,-3.01965 4.6193,-0.45229 8.2298,-1.31594 8.7032,-2.08185 0.4647,-0.75191 -0.04,-3.46237 -1.1857,-6.36944 -1.9538,-4.9566 -1.9558,-5.11267 -0.1,-7.59827 1.042,-1.39575 3.1188,-2.86512 4.6151,-3.26528 3.8249,-1.02293 9.5011,0.78509 11.3569,3.61751 1.4411,2.19932 1.3993,2.76416 -0.5146,6.96553 -1.1456,2.51467 -2.0828,5.03564 -2.0828,5.60216 0,1.81202 3.3439,2.84827 10.8443,3.36053 4.0199,0.27455 7.948,1.02956 8.7291,1.67781 0.7811,0.64825 1.7227,3.32319 2.0926,5.94431 0.3698,2.62113 0.9044,5.56113 1.188,6.53343 0.6216,2.1312 3.9659,2.2446 7.4505,0.2526 6.0938,-3.4836 10.1016,-0.3886 10.1016,7.8009 0,7.9537 -5.4238,11.2955 -11.1117,6.8463 -5.2612,-4.1154 -6.5395,-2.2381 -7.4302,10.9119 -0.3501,5.1683 -1.0999,10.2626 -1.6662,11.3208 -2.0803,3.8871 -13.0573,3.6831 -15.5471,-0.2889 -0.858,-1.3689 -0.7075,-2.4932 0.6524,-4.8725 0.9722,-1.7011 1.7677,-4.3493 1.7677,-5.885 0,-6.9612 -11.8125,-9.3456 -15.1748,-3.0631 -0.9506,1.7762 -0.6966,3.0836 1.4317,7.372 l 2.5872,5.2129 -2.1941,1.6674 c -3.5184,2.6736 -14.6984,3.7265 -20.9871,1.9763 z"
         id="path4906-7"
         inkscape:connector-curvature="0" />
    </g>
    <path
       style="fill:#cccccc;fill-rule:evenodd;stroke:#000000;stroke-width:1.56135511px;stroke-linecap:butt;stroke-linejoin:miter;stroke-opacity:1"
       d="m 72.133617,917.97955 -5.236004,6.48221 -43.172488,0 0,106.70794 236.145425,0 0.42399,-106.7064 -183.165353,0 z"
       id="path4945"
       inkscape:connector-curvature="0"
       sodipodi:nodetypes="cccccccc" />
    <text
       xml:space="preserve"
       style="font-style:normal;font-weight:normal;font-size:10.34784603px;line-height:125%;font-family:sans-serif;letter-spacing:0px;word-spacing:0px;fill:#000000;fill-opacity:1;stroke:none;stroke-width:1px;stroke-linecap:butt;stroke-linejoin:miter;stroke-opacity:1"
       x="82.780563"
       y="946.1723"
       id="text4947"
       sodipodi:linespacing="125%"><tspan
         sodipodi:role="line"
         id="tspan4949"
         x="82.780563"
         y="946.1723"
         style="font-style:normal;font-variant:normal;font-weight:bold;font-stretch:normal;font-family:sans-serif;-inkscape-font-specification:'sans-serif Bold'">addons.mozilla.org</tspan></text>
    <g
       id="g4873"
       transform="matrix(0.66368115,0,0,0.66368115,201.17287,303.74408)"
       style="fill:#000000">
      <path
         style="opacity:1;fill:#000000;fill-opacity:1;stroke:none;stroke-width:1.5;stroke-linejoin:round;stroke-miterlimit:4;stroke-dasharray:none;stroke-dashoffset:0;stroke-opacity:1"
         d="m -254.93008,1043.5505 c -3.9442,-1.0976 -5.1687,-4.6277 -4.8431,-13.9621 0.2216,-6.3546 0.7126,-8.7205 2.0965,-10.1015 1.7349,-1.7313 2.0177,-1.6909 7.0711,1.012 l 5.2639,2.8155 2.2656,-2.6109 c 3.0624,-3.529 3.7439,-6.8475 2.1089,-10.2692 -1.6829,-3.522 -5.2003,-4.1882 -9.6006,-1.8184 -4.003,2.1557 -7.9407,1.3573 -8.7815,-1.7806 -1.2538,-4.679 -0.6644,-11.6259 1.1797,-13.90319 1.4703,-1.81585 3.3332,-2.39494 9.7135,-3.01965 4.6193,-0.45229 8.2298,-1.31594 8.7032,-2.08185 0.4647,-0.75191 -0.04,-3.46237 -1.1857,-6.36944 -1.9538,-4.9566 -1.9558,-5.11267 -0.1,-7.59827 1.042,-1.39575 3.1188,-2.86512 4.6151,-3.26528 3.8249,-1.02293 9.5011,0.78509 11.3569,3.61751 1.4411,2.19932 1.3993,2.76416 -0.5146,6.96553 -1.1456,2.51467 -2.0828,5.03564 -2.0828,5.60216 0,1.81202 3.3439,2.84827 10.8443,3.36053 4.0199,0.27455 7.948,1.02956 8.7291,1.67781 0.7811,0.64825 1.7227,3.32319 2.0926,5.94431 0.3698,2.62113 0.9044,5.56113 1.188,6.53343 0.6216,2.1312 3.9659,2.2446 7.4505,0.2526 6.0938,-3.4836 10.1016,-0.3886 10.1016,7.8009 0,7.9537 -5.4238,11.2955 -11.1117,6.8463 -5.2612,-4.1154 -6.5395,-2.2381 -7.4302,10.9119 -0.3501,5.1683 -1.0999,10.2626 -1.6662,11.3208 -2.0803,3.8871 -13.0573,3.6831 -15.5471,-0.2889 -0.858,-1.3689 -0.7075,-2.4932 0.6524,-4.8725 0.9722,-1.7011 1.7677,-4.3493 1.7677,-5.885 0,-6.9612 -11.8125,-9.3456 -15.1748,-3.0631 -0.9506,1.7762 -0.6966,3.0836 1.4317,7.372 l 2.5872,5.2129 -2.1941,1.6674 c -3.5184,2.6736 -14.6984,3.7265 -20.9871,1.9763 z"
         id="path4906"
         inkscape:connector-curvature="0" />
    </g>
    <text
       xml:space="preserve"
       style="font-style:normal;font-weight:normal;font-size:7.03659534px;line-height:125%;font-family:sans-serif;letter-spacing:0px;word-spacing:0px;fill:#000000;fill-opacity:1;stroke:none;stroke-width:1px;stroke-linecap:butt;stroke-linejoin:miter;stroke-opacity:1"
       x="82.026375"
       y="958.44897"
       id="text4951"
       sodipodi:linespacing="125%"><tspan
         sodipodi:role="line"
         id="tspan4953"
         x="82.026375"
         y="958.44897">ce site souhaite installer un module sur Firefox :</tspan></text>
    <text
       xml:space="preserve"
       style="font-style:normal;font-weight:normal;font-size:10.34784603px;line-height:125%;font-family:sans-serif;letter-spacing:0px;word-spacing:0px;fill:#000000;fill-opacity:1;stroke:none;stroke-width:1px;stroke-linecap:butt;stroke-linejoin:miter;stroke-opacity:1"
       x="81.171852"
       y="976.06256"
       id="text4947-2"
       sodipodi:linespacing="125%"><tspan
         sodipodi:role="line"
         id="tspan4949-5"
         x="81.171852"
         y="976.06256"
         style="font-style:normal;font-variant:normal;font-weight:bold;font-stretch:normal;font-family:sans-serif;-inkscape-font-specification:'sans-serif Bold'">Grammalecte [fr]</tspan></text>
    <text
       xml:space="preserve"
       style="font-style:normal;font-weight:normal;font-size:7.03659534px;line-height:125%;font-family:sans-serif;letter-spacing:0px;word-spacing:0px;fill:#000000;fill-opacity:1;stroke:none;stroke-width:1px;stroke-linecap:butt;stroke-linejoin:miter;stroke-opacity:1"
       x="81.633087"
       y="991.15295"
       id="text4951-7"
       sodipodi:linespacing="125%"><tspan
         sodipodi:role="line"
         id="tspan4953-9"
         x="81.633087"
         y="991.15295">En savoir plus...</tspan></text>
    <text
       xml:space="preserve"
       style="font-style:normal;font-weight:normal;font-size:13.3310585px;line-height:125%;font-family:sans-serif;letter-spacing:0px;word-spacing:0px;fill:#000000;fill-opacity:1;stroke:none;stroke-width:1px;stroke-linecap:butt;stroke-linejoin:miter;stroke-opacity:1"
       x="105.94228"
       y="1015.1569"
       id="text5001"
       sodipodi:linespacing="125%"><tspan
         sodipodi:role="line"
         id="tspan5003"
         x="105.94228"
         y="1015.1569"
         style="font-style:normal;font-variant:normal;font-weight:bold;font-stretch:normal;font-family:sans-serif;-inkscape-font-specification:'sans-serif Bold'">Annuler    Installer</tspan></text>
    <rect
       style="opacity:1;fill:none;fill-opacity:1;stroke:#000000;stroke-width:1.67795336;stroke-linejoin:round;stroke-miterlimit:4;stroke-dasharray:none;stroke-dashoffset:0;stroke-opacity:1"
       id="rect5005"
       width="64.409576"
       height="20.551741"
       x="103.43923"
       y="1000.8231"
       ry="0" />
    <rect
       style="opacity:1;fill:none;fill-opacity:1;stroke:#000000;stroke-width:1.73197949;stroke-linejoin:round;stroke-miterlimit:4;stroke-dasharray:none;stroke-dashoffset:0;stroke-opacity:1"
       id="rect5005-1"
       width="68.804901"
       height="20.497713"
       x="180.0623"
       y="1000.7444"
       ry="0" />
  </g>
</svg>
